Figure3-β-Amyloid
…
# Save summary table as CSV
output_path_table <- "figures/Figure3_A.csv"
write.csv(summary_table, file = output_path_table, row.names = FALSE)

# Print the summary table
print(summary_table)

`summarise()` has grouped output by 'time_point', 'ad_category'. You can
override using the `.groups` argument.

# A tibble: 27 × 5
# Groups:   time_point, ad_category [9]
   time_point ad_category Treatment_Information mean_Amyloid_Beta
        <int> <fct>       <chr>                             <dbl>
 1          1 Slow        LY3314814-20mg                     79.2
 2         52 Slow        LY3314814-20mg                     75.3
 3        104 Slow        LY3314814-20mg                     70.7
 4          1 Slow        LY3314814-50mg                     74.4
 5         52 Slow        LY3314814-50mg                     68.0
 6        104 Slow        LY3314814-50mg                     61.7
 7          1 Slow        Placebo                            79.1
 8         52 Slow        Placebo                            81.0
 9        104 Slow        Placebo                            82.4
10          1 Rapid       LY3314814-20mg                    115. 
# ℹ 17 more rows
# ℹ 1 more variable: se_Amyloid_Beta <dbl>
…
